{
    "workbench.colorTheme": "Base16 Default Dark",
    "redhat.telemetry.enabled": false,
    "editor.bracketPairColorization.enabled": true,
    "editor.guides.bracketPairs":"active",
    "terminal.integrated.fontFamily": "Liberation Mono for Powerline" 
}